EESchema Schematic File Version 4
LIBS:partA-cache
EELAYER 26 0
EELAYER END
$Descr User 5500 4000
encoding utf-8
Sheet 5 8
Title "Experiment 2 Circuit 1"
Date ""
Rev ""
Comp ""
Comment1 ""
Comment2 ""
Comment3 ""
Comment4 ""
$EndDescr
$Comp
L Device:Battery_Cell BT?
U 1 1 5BAA5899
P 1410 1980
F 0 "BT?" H 1531 2077 50  0000 L CNN
F 1 "Battery_Cell" H 1531 1984 50  0000 L CNN
F 2 "" V 1410 2040 50  0001 C CNN
F 3 "~" V 1410 2040 50  0001 C CNN
	1    1410 1980
	1    0    0    -1  
$EndComp
$Comp
L Switch:SW_SPST SW?
U 1 1 5BAA5900
P 2200 1340
F 0 "SW?" H 2200 1581 50  0000 C CNN
F 1 "SW_SPST" H 2200 1488 50  0000 C CNN
F 2 "" H 2200 1340 50  0001 C CNN
F 3 "" H 2200 1340 50  0001 C CNN
	1    2200 1340
	1    0    0    -1  
$EndComp
$Comp
L Device:Lamp LA?
U 1 1 5BAA6214
P 3100 1850
F 0 "LA?" H 3231 1897 50  0000 L CNN
F 1 "Lamp" H 3231 1804 50  0000 L CNN
F 2 "" V 3100 1950 50  0001 C CNN
F 3 "~" V 3100 1950 50  0001 C CNN
	1    3100 1850
	1    0    0    -1  
$EndComp
$Comp
L Device:Lamp LA?
U 1 1 5BAA6309
P 3590 1850
F 0 "LA?" H 3721 1897 50  0000 L CNN
F 1 "Lamp" H 3721 1804 50  0000 L CNN
F 2 "" V 3590 1950 50  0001 C CNN
F 3 "~" V 3590 1950 50  0001 C CNN
	1    3590 1850
	1    0    0    -1  
$EndComp
$Comp
L Device:Lamp LA?
U 1 1 5BAA63BB
P 4100 1850
F 0 "LA?" H 4231 1897 50  0000 L CNN
F 1 "Lamp" H 4231 1804 50  0000 L CNN
F 2 "" V 4100 1950 50  0001 C CNN
F 3 "~" V 4100 1950 50  0001 C CNN
	1    4100 1850
	1    0    0    -1  
$EndComp
Wire Wire Line
	2400 1340 3100 1340
Wire Wire Line
	4100 1340 4100 1650
Wire Wire Line
	4100 2050 4100 2210
Wire Wire Line
	4100 2210 3590 2210
Wire Wire Line
	1410 2210 1410 2080
Wire Wire Line
	1410 1780 1410 1340
Wire Wire Line
	1410 1340 2000 1340
Wire Wire Line
	3100 1650 3100 1340
Connection ~ 3100 1340
Wire Wire Line
	3100 1340 3590 1340
Wire Wire Line
	3590 1650 3590 1340
Connection ~ 3590 1340
Wire Wire Line
	3590 1340 4100 1340
Wire Wire Line
	3590 2050 3590 2210
Connection ~ 3590 2210
Wire Wire Line
	3590 2210 3100 2210
Wire Wire Line
	3100 2050 3100 2210
Connection ~ 3100 2210
Wire Wire Line
	3100 2210 1410 2210
$EndSCHEMATC
